Electronics/ElectronicsMeasurements/ShuntResistor_2VPulse.csv

Record Length,6250,Points,-49.96800423E-3,2.0800002,,Record Length,6250,Points,-49.96800423E-3,2.1400001,,Record Length,6250,Points,-49.96800423E-3,2.0800002,,Record Length,6250,Points,-49.96800423E-3,2.1200001,
Sample Interval,16.0000000E-6,s,-49.95200410E-3,2.1800001,,Sample Interval,16.0000000E-6,s,-49.95200410E-3,2.1400001,,Sample Interval,16.0000000E-6,s,-49.95200410E-3,2.1600001,,Sample Interval,16.0000000E-6,s,-49.95200410E-3,2.1000001,
Trigger Point,3.12300042E3,Samples,-49.93600398E-3,2.0800002,,Trigger Point,3.12300042E3,Samples,-49.93600398E-3,2.1400001,,Trigger Point,3.12300042E3,Samples,-49.93600398E-3,2.0600002,,Trigger Point,3.12300042E3,Samples,-49.93600398E-3,2.1200001,
,,,-49.92000386E-3,2.2000000,,,,,-49.92000386E-3,2.1200001,,,,,-49.92000386E-3,2.1800001,,,,,-49.92000386E-3,2.1200001,
,,,-49.90400374E-3,2.0800002,,,,,-49.90400374E-3,2.1200001,,,,,-49.90400374E-3,2.0600002,,,,,-49.90400374E-3,2.1600001,
,,,-49.88800362E-3,2.1800001,,,,,-49.88800362E-3,2.1200001,,,,,-49.88800362E-3,2.1600001,,,,,-49.88800362E-3,2.1400001,
Source,Glitch Capture CH1,,-49.87200350E-3,2.0800002,,Source,Sample CH1,,-49.87200350E-3,2.1400001,,Source,Glitch Capture CH2,,-49.87200350E-3,2.0600002,,Source,Sample CH2,,-49.87200350E-3,2.1400001,
Vertical Units,V,,-49.85600337E-3,2.1800001,,Vertical Units,V,,-49.85600337E-3,2.1200001,,Vertical Units,V,,-49.85600337E-3,2.1800001,,Vertical Units,V,,-49.85600337E-3,2.1200001,
Vertical Scale,500.000035390E-3,,-49.84000325E-3,2.0800002,,Vertical Scale,500.000035390E-3,,-49.84000325E-3,2.1400001,,Vertical Scale,500.000035390E-3,,-49.84000325E-3,2.0600002,,Vertical Scale,500.000035390E-3,,-49.84000325E-3,2.1400001,
Vertical Offset,0,,-49.82400313E-3,2.2000000,,Vertical Offset,0,,-49.82400313E-3,2.1200001,,Vertical Offset,0,,-49.82400313E-3,2.1800001,,Vertical Offset,0,,-49.82400313E-3,2.1200001,
Horizontal Units,s,,-49.80800301E-3,2.0800002,,Horizontal Units,s,,-49.80800301E-3,2.1200001,,Horizontal Units,s,,-49.80800301E-3,2.0800002,,Horizontal Units,s,,-49.80800301E-3,2.1400001,
Horizontal Scale,9.999999975E-3,,-49.79200289E-3,2.2000000,,Horizontal Scale,9.999999975E-3,,-49.79200289E-3,2.1400001,,Horizontal Scale,9.999999975E-3,,-49.79200289E-3,2.1800001,,Horizontal Scale,9.999999975E-3,,-49.79200289E-3,2.1200001,
Pt Fmt,Y,,-49.77600276E-3,2.0600002,,Pt Fmt,Y,,-49.77600276E-3,2.1400001,,Pt Fmt,Y,,-49.77600276E-3,2.0600002,,Pt Fmt,Y,,-49.77600276E-3,2.1200001,
Yzero,-4.00000000,,-49.76000264E-3,2.2000000,,Yzero,-4.00000000,,-49.76000264E-3,2.1400001,,Yzero,-4.00000000,,-49.76000264E-3,2.1800001,,Yzero,-4.00000000,,-49.76000264E-3,2.1200001,
Probe Atten,1.000000,,-49.74400252E-3,2.0800002,,Probe Atten,1.000000,,-49.74400252E-3,2.1200001,,Probe Atten,1.000000,,-49.74400252E-3,2.0600002,,Probe Atten,1.000000,,-49.74400252E-3,2.1200001,
,,,-49.72800240E-3,2.1800001,,,,,-49.72800240E-3,2.1200001,,,,,-49.72800240E-3,2.1600001,,,,,-49.72800240E-3,2.1200001,
Note,DPO2024 - 4:30:03 PM   3/18/2025,,-49.71200600E-3,2.0600002,,Note,DPO2024 - 4:30:03 PM   3/18/2025,,-49.71200600E-3,2.1200001,,Note,DPO2024 - 4:30:03 PM   3/18/2025,,-49.71200600E-3,2.0600002,,Note,DPO2024 - 4:30:03 PM   3/18/2025,,-49.71200600E-3,2.1200001,
,,,-49.69600588E-3,2.2000000,,,,,-49.69600588E-3,2.1400001,,,,,-49.69600588E-3,2.1800001,,,,,-49.69600588E-3,2.1200001,
,,,-49.68000576E-3,2.0800002,,,,,-49.68000576E-3,2.1200001,,,,,-49.68000576E-3,2.0800002,,,,,-49.68000576E-3,2.1400001,
,,,-49.66400564E-3,2.1800001,,,,,-49.66400564E-3,2.1200001,,,,,-49.66400564E-3,2.1800001,,,,,-49.66400564E-3,2.1400001,
,,,-49.64800552E-3,2.0600002,,,,,-49.64800552E-3,2.1400001,,,,,-49.64800552E-3,2.0600002,,,,,-49.64800552E-3,2.1200001,
,,,-49.63200539E-3,2.2000000,,,,,-49.63200539E-3,2.1200001,,,,,-49.63200539E-3,2.1800001,,,,,-49.63200539E-3,2.1200001,
,,,-49.61600527E-3,2.0600002,,,,,-49.61600527E-3,2.1200001,,,,,-49.61600527E-3,2.0400002,,,,,-49.61600527E-3,2.1200001,
,,,-49.60000515E-3,2.2000000,,,,,-49.60000515E-3,2.1200001,,,,,-49.60000515E-3,2.1800001,,,,,-49.60000515E-3,2.1200001,
,,,-49.58400503E-3,2.0800002,,,,,-49.58400503E-3,2.1200001,,,,,-49.58400503E-3,2.0600002,,,,,-49.58400503E-3,2.1200001,
,,,-49.56800491E-3,2.1800001,,,,,-49.56800491E-3,2.1200001,,,,,-49.56800491E-3,2.1600001,,,,,-49.56800491E-3,2.1200001,
,,,-49.55200478E-3,2.0600002,,,,,-49.55200478E-3,2.1200001,,,,,-49.55200478E-3,2.0600002,,,,,-49.55200478E-3,2.1400001,
,,,-49.53600466E-3,2.2000000,,,,,-49.53600466E-3,2.1200001,,,,,-49.53600466E-3,2.1800001,,,,,-49.53600466E-3,2.1200001,
,,,-49.52000454E-3,2.0800002,,,,,-49.52000454E-3,2.1400001,,,,,-49.52000454E-3,2.0800002,,,,,-49.52000454E-3,2.1200001,
,,,-49.50400442E-3,2.1800001,,,,,-49.50400442E-3,2.1400001,,,,,-49.50400442E-3,2.1800001,,,,,-49.50400442E-3,2.1400001,
,,,-49.48800430E-3,2.1000001,,,,,-49.48800430E-3,2.1200001,,,,,-49.48800430E-3,2.0800002,,,,,-49.48800430E-3,2.1200001,
,,,-49.47200418E-3,2.1800001,,,,,-49.47200418E-3,2.1200001,,,,,-49.47200418E-3,2.1600001,,,,,-49.47200418E-3,2.1200001,
,,,-49.45600405E-3,2.0600002,,,,,-49.45600405E-3,2.1400001,,,,,-49.45600405E-3,2.0600002,,,,,-49.45600405E-3,2.1200001,
,,,-49.44000393E-3,2.2000000,,,,,-49.44000393E-3,2.1400001,,,,,-49.44000393E-3,2.1800001,,,,,-49.44000393E-3,2.1200001,
,,,-49.42400381E-3,2.0800002,,,,,-49.42400381E-3,2.1200001,,,,,-49.42400381E-3,2.0800002,,,,,-49.42400381E-3,2.1200001,
,,,-49.40800369E-3,2.2000000,,,,,-49.40800369E-3,2.1400001,,,,,-49.40800369E-3,2.1800001,,,,,-49.40800369E-3,2.1200001,
,,,-49.39200357E-3,2.0800002,,,,,-49.39200357E-3,2.1400001,,,,,-49.39200357E-3,2.0600002,,,,,-49.39200357E-3,2.1200001,
,,,-49.37600344E-3,2.2200003,,,,,-49.37600344E-3,2.1400001,,,,,-49.37600344E-3,2.1800001,,,,,-49.37600344E-3,2.1200001,
,,,-49.36000332E-3,2.0800002,,,,,-49.36000332E-3,2.1400001,,,,,-49.36000332E-3,2.0600002,,,,,-49.36000332E-3,2.1200001,
,,,-49.34400320E-3,2.1800001,,,,,-49.34400320E-3,2.1200001,,,,,-49.34400320E-3,2.1600001,,,,,-49.34400320E-3,2.1200001,
,,,-49.32800308E-3,2.0600002,,,,,-49.32800308E-3,2.1200001,,,,,-49.32800308E-3,2.0600002,,,,,-49.32800308E-3,2.1000001,
,,,-49.31200296E-3,2.2000000,,,,,-49.31200296E-3,2.1200001,,,,,-49.31200296E-3,2.1800001,,,,,-49.31200296E-3,2.1000001,
,,,-49.29600284E-3,2.0800002,,,,,-49.29600284E-3,2.1200001,,,,,-49.29600284E-3,2.0800002,,,,,-49.29600284E-3,2.1200001,
,,,-49.28000271E-3,2.1800001,,,,,-49.28000271E-3,2.1400001,,,,,-49.28000271E-3,2.1600001,,,,,-49.28000271E-3,2.1000001,
,,,-49.26400259E-3,2.0600002,,,,,-49.26400259E-3,2.1400001,,,,,-49.26400259E-3,2.0600002,,,,,-49.26400259E-3,2.1400001,
,,,-49.24800247E-3,2.2000000,,,,,-49.24800247E-3,2.1200001,,,,,-49.24800247E-3,2.1800001,,,,,-49.24800247E-3,2.1200001,
,,,-49.23200607E-3,2.0600002,,,,,-49.23200607E-3,2.1200001,,,,,-49.23200607E-3,2.0400002,,,,,-49.23200607E-3,2.1200001,
,,,-49.21600595E-3,2.2000000,,,,,-49.21600595E-3,2.1200001,,,,,-49.21600595E-3,2.1800001,,,,,-49.21600595E-3,2.1200001,
,,,-49.20000583E-3,2.0800002,,,,,-49.20000583E-3,2.1200001,,,,,-49.20000583E-3,2.0600002,,,,,-49.20000583E-3,2.1200001,
,,,-49.18400571E-3,2.1800001,,,,,-49.18400571E-3,2.1200001,,,,,-49.18400571E-3,2.1600001,,,,,-49.18400571E-3,2.1200001,
,,,-49.16800559E-3,2.0800002,,,,,-49.16800559E-3,2.1200001,,,,,-49.16800559E-3,2.0600002,,,,,-49.16800559E-3,2.1200001,
,,,-49.15200546E-3,2.2000000,,,,,-49.15200546E-3,2.1400001,,,,,-49.15200546E-3,2.1800001,,,,,-49.15200546E-3,2.1000001,
,,,-49.13600534E-3,2.0600002,,,,,-49.13600534E-3,2.1200001,,,,,-49.13600534E-3,2.0400002,,,,,-49.13600534E-3,2.1200001,
,,,-49.12000522E-3,2.2000000,,,,,-49.12000522E-3,2.1400001,,,,,-49.12000522E-3,2.1800001,,,,,-49.12000522E-3,2.1000001,
,,,-49.10400510E-3,2.0800002,,,,,-49.10400510E-3,2.1200001,,,,,-49.10400510E-3,2.0600002,,,,,-49.10400510E-3,2.1200001,
,,,-49.08800498E-3,2.1800001,,,,,-49.08800498E-3,2.1200001,,,,,-49.08800498E-3,2.1800001,,,,,-49.08800498E-3,2.1200001,
,,,-49.07200485E-3,2.0600002,,,,,-49.07200485E-3,2.1600001,,,,,-49.07200485E-3,2.0400002,,,,,-49.07200485E-3,2.1200001,
,,,-49.05600473E-3,2.2000000,,,,,-49.05600473E-3,2.1200001,,,,,-49.05600473E-3,2.1800001,,,,,-49.05600473E-3,2.1200001,
,,,-49.04000461E-3,2.0600002,,,,,-49.04000461E-3,2.1200001,,,,,-49.04000461E-3,2.0400002,,,,,-49.04000461E-3,2.1200001,
,,,-49.02400449E-3,2.2000000,,,,,-49.02400449E-3,2.1000001,,,,,-49.02400449E-3,2.1800001,,,,,-49.02400449E-3,2.1200001,
,,,-49.00800437E-3,2.0600002,,,,,-49.00800437E-3,2.1200001,,,,,-49.00800437E-3,2.0400002,,,,,-49.00800437E-3,2.1200001,
,,,-48.99200425E-3,2.2000000,,,,,-48.99200425E-3,2.1400001,,,,,-48.99200425E-3,2.1800001,,,,,-48.99200425E-3,2.1400001,
,,,-48.97600412E-3,2.0600002,,,,,-48.97600412E-3,2.1400001,,,,,-48.97600412E-3,2.0400002,,,,,-48.97600412E-3,2.1200001,
,,,-48.96000400E-3,2.2000000,,,,,-48.96000400E-3,2.1200001,,,,,-48.96000400E-3,2.1800001,,,,,-48.96000400E-3,2.1200001,
,,,-48.94400388E-3,2.0800002,,,,,-48.94400388E-3,2.1200001,,,,,-48.94400388E-3,2.0600002,,,,,-48.94400388E-3,2.1000001,
,,,-48.92800376E-3,2.2000000,,,,,-48.92800376E-3,2.1200001,,,,,-48.92800376E-3,2.1800001,,,,,-48.92800376E-3,2.1000001,
,,,-48.91200364E-3,2.0800002,,,,,-48.91200364E-3,2.1200001,,,,,-48.91200364E-3,2.0600002,,,,,-48.91200364E-3,2.1200001,
,,,-48.89600351E-3,2.2000000,,,,,-48.89600351E-3,2.1600001,,,,,-48.89600351E-3,2.1600001,,,,,-48.89600351E-3,2.1200001,
,,,-48.88000339E-3,2.0600002,,,,,-48.88000339E-3,2.1200001,,,,,-48.88000339E-3,2.0600002,,,,,-48.88000339E-3,2.1200001,
,,,-48.86400327E-3,2.2000000,,,,,-48.86400327E-3,2.1200001,,,,,-48.86400327E-3,2.1800001,,,,,-48.86400327E-3,2.1200001,
,,,-48.84800315E-3,2.0600002,,,,,-48.84800315E-3,2.1200001,,,,,-48.84800315E-3,2.0600002,,,,,-48.84800315E-3,2.1200001,
,,,-48.83200303E-3,2.2000000,,,,,-48.83200303E-3,2.1200001,,,,,-48.83200303E-3,2.1800001,,,,,-48.83200303E-3,2.1000001,
,,,-48.81600291E-3,2.0800002,,,,,-48.81600291E-3,2.1400001,,,,,-48.81600291E-3,2.0600002,,,,,-48.81600291E-3,2.1000001,
,,,-48.80000278E-3,2.1800001,,,,,-48.80000278E-3,2.1200001,,,,,-48.80000278E-3,2.1600001,,,,,-48.80000278E-3,2.1200001,
,,,-48.78400266E-3,2.0600002,,,,,-48.78400266E-3,2.1200001,,,,,-48.78400266E-3,2.0400002,,,,,-48.78400266E-3,2.1200001,
,,,-48.76800254E-3,2.2000000,,,,,-48.76800254E-3,2.1200001,,,,,-48.76800254E-3,2.1800001,,,,,-48.76800254E-3,2.1200001,
,,,-48.75200242E-3,2.0600002,,,,,-48.75200242E-3,2.1400001,,,,,-48.75200242E-3,2.0400002,,,,,-48.75200242E-3,2.1200001,
,,,-48.73600602E-3,2.2000000,,,,,-48.73600602E-3,2.1400001,,,,,-48.73600602E-3,2.1800001,,,,,-48.73600602E-3,2.1200001,
,,,-48.72000590E-3,2.0800002,,,,,-48.72000590E-3,2.1400001,,,,,-48.72000590E-3,2.0800002,,,,,-48.72000590E-3,2.1200001,
,,,-48.70400578E-3,2.1800001,,,,,-48.70400578E-3,2.1200001,,,,,-48.70400578E-3,2.1600001,,,,,-48.70400578E-3,2.1000001,
,,,-48.68800566E-3,2.0600002,,,,,-48.68800566E-3,2.1400001,,,,,-48.68800566E-3,2.0400002,,,,,-48.68800566E-3,2.1200001,
,,,-48.67200553E-3,2.2000000,,,,,-48.67200553E-3,2.1200001,,,,,-48.67200553E-3,2.1800001,,,,,-48.67200553E-3,2.1200001,
,,,-48.65600541E-3,2.0800002,,,,,-48.65600541E-3,2.1400001,,,,,-48.65600541E-3,2.0600002,,,,,-48.65600541E-3,2.1200001,
,,,-48.64000529E-3,2.2000000,,,,,-48.64000529E-3,2.1200001,,,,,-48.64000529E-3,2.1800001,,,,,-48.64000529E-3,2.1200001,
,,,-48.62400517E-3,2.0800002,,,,,-48.62400517E-3,2.1200001,,,,,-48.62400517E-3,2.0600002,,,,,-48.62400517E-3,2.1000001,
,,,-48.60800505E-3,2.2000000,,,,,-48.60800505E-3,2.1200001,,,,,-48.60800505E-3,2.1600001,,,,,-48.60800505E-3,2.1200001,
,,,-48.59200493E-3,2.0600002,,,,,-48.59200493E-3,2.1200001,,,,,-48.59200493E-3,2.0400002,,,,,-48.59200493E-3,2.1400001,
,,,-48.57600480E-3,2.2000000,,,,,-48.57600480E-3,2.1200001,,,,,-48.57600480E-3,2.1800001,,,,,-48.57600480E-3,2.1200001,
,,,-48.56000468E-3,2.0800002,,,,,-48.56000468E-3,2.1200001,,,,,-48.56000468E-3,2.0600002,,,,,-48.56000468E-3,2.1000001,
,,,-48.54400456E-3,2.1800001,,,,,-48.54400456E-3,2.1400001,,,,,-48.54400456E-3,2.1600001,,,,,-48.54400456E-3,2.1000001,
,,,-48.52800444E-3,2.0600002,,,,,-48.52800444E-3,2.1400001,,,,,-48.52800444E-3,2.0600002,,,,,-48.52800444E-3,2.1200001,
,,,-48.51200432E-3,2.2000000,,,,,-48.51200432E-3,2.1400001,,,,,-48.51200432E-3,2.1800001,,,,,-48.51200432E-3,2.1200001,
,,,-48.49600419E-3,2.0600002,,,,,-48.49600419E-3,2.1200001,,,,,-48.49600419E-3,2.0400002,,,,,-48.49600419E-3,2.1000001,
,,,-48.48000407E-3,2.2000000,,,,,-48.48000407E-3,2.1200001,,,,,-48.48000407E-3,2.1600001,,,,,-48.48000407E-3,2.1000001,
,,,-48.46400395E-3,2.0600002,,,,,-48.46400395E-3,2.1200001,,,,,-48.46400395E-3,2.0400002,,,,,-48.46400395E-3,2.1200001,
,,,-48.44800383E-3,2.1800001,,,,,-48.44800383E-3,2.1200001,,,,,-48.44800383E-3,2.1600001,,,,,-48.44800383E-3,2.1200001,
,,,-48.43200371E-3,2.0800002,,,,,-48.43200371E-3,2.1200001,,,,,-48.43200371E-3,2.0600002,,,,,-48.43200371E-3,2.1200001,
,,,-48.41600358E-3,2.1800001,,,,,-48.41600358E-3,2.1200001,,,,,-48.41600358E-3,2.1600001,,,,,-48.41600358E-3,2.1000001,
,,,-48.40000346E-3,2.0600002,,,,,-48.40000346E-3,2.1200001,,,,,-48.40000346E-3,2.0600002,,,,,-48.40000346E-3,2.1000001,
,,,-48.38400334E-3,2.1800001,,,,,-48.38400334E-3,2.1200001,,,,,-48.38400334E-3,2.1800001,,,,,-48.38400334E-3,2.1000001,
,,,-48.36800322E-3,2.0600002,,,,,-48.36800322E-3,2.1400001,,,,,-48.36800322E-3,2.0400002,,,,,-48.36800322E-3,2.1000001,
,,,-48.35200310E-3,2.2000000,,,,,-48.35200310E-3,2.1400001,,,,,-48.35200310E-3,2.1800001,,,,,-48.35200310E-3,2.1200001,
,,,-48.33600298E-3,2.0800002,,,,,-48.33600298E-3,2.1200001,,,,,-48.33600298E-3,2.0600002,,,,,-48.33600298E-3,2.1200001,
,,,-48.32000285E-3,2.1800001,,,,,-48.32000285E-3,2.1400001,,,,,-48.32000285E-3,2.1600001,,,,,-48.32000285E-3,2.1200001,
,,,-48.30400273E-3,2.0600002,,,,,-48.30400273E-3,2.1200001,,,,,-48.30400273E-3,2.0600002,,,,,-48.30400273E-3,2.1200001,
,,,-48.28800261E-3,2.2000000,,,,,-48.28800261E-3,2.1200001,,,,,-48.28800261E-3,2.1800001,,,,,-48.28800261E-3,2.1200001,
,,,-48.27200249E-3,2.0600002,,,,,-48.27200249E-3,2.1400001,,,,,-48.27200249E-3,2.0400002,,,,,-48.27200249E-3,2.1200001,
,,,-48.25600609E-3,2.2000000,,,,,-48.25600609E-3,2.1200001,,,,,-48.25600609E-3,2.1800001,,,,,-48.25600609E-3,2.1000001,
,,,-48.24000597E-3,2.0800002,,,,,-48.24000597E-3,2.1200001,,,,,-48.24000597E-3,2.0600002,,,,,-48.24000597E-3,2.1000001,
,,,-48.22400585E-3,2.1800001,,,,,-48.22400585E-3,2.1200001,,,,,-48.22400585E-3,2.1600001,,,,,-48.22400585E-3,2.1200001,
,,,-48.20800573E-3,2.0600002,,,,,-48.20800573E-3,2.1200001,,,,,-48.20800573E-3,2.0400002,,,,,-48.20800573E-3,2.1000001,
,,,-48.19200560E-3,2.2000000,,,,,-48.19200560E-3,2.1200001,,,,,-48.19200560E-3,2.1800001,,,,,-48.19200560E-3,2.1000001,
,,,-48.17600548E-3,2.0800002,,,,,-48.17600548E-3,2.1200001,,,,,-48.17600548E-3,2.0600002,,,,,-48.17600548E-3,2.1000001,
,,,-48.16000536E-3,2.1800001,,,,,-48.16000536E-3,2.1400001,,,,,-48.16000536E-3,2.1600001,,,,,-48.16000536E-3,2.1000001,
,,,-48.14400524E-3,2.0800002,,,,,-48.14400524E-3,2.1200001,,,,,-48.14400524E-3,2.0800002,,,,,-48.14400524E-3,2.1000001,
,,,-48.12800512E-3,2.1800001,,,,,-48.12800512E-3,2.1200001,,,,,-48.12800512E-3,2.1600001,,,,,-48.12800512E-3,2.1000001,
,,,-48.11200500E-3,2.0800002,,,,,-48.11200500E-3,2.1200001,,,,,-48.11200500E-3,2.0600002,,,,,-48.11200500E-3,2.1200001,
,,,-48.09600487E-3,2.1800001,,,,,-48.09600487E-3,2.1200001,,,,,-48.09600487E-3,2.1600001,,,,,-48.09600487E-3,2.1200001,
,,,-48.08000475E-3,2.0600002,,,,,-48.08000475E-3,2.1200001,,,,,-48.08000475E-3,2.0400002,,,,,-48.08000475E-3,2.1000001,
,,,-48.06400463E-3,2.1800001,,,,,-48.06400463E-3,2.1400001,,,,,-48.06400463E-3,2.1800001,,,,,-48.06400463E-3,2.1200001,
,,,-48.04800451E-3,2.0800002,,,,,-48.04800451E-3,2.1200001,,,,,-48.04800451E-3,2.0600002,,,,,-48.04800451E-3,2.1200001,
,,,-48.03200439E-3,2.1800001,,,,,-48.03200439E-3,2.1600001,,,,,-48.03200439E-3,2.1600001,,,,,-48.03200439E-3,2.1400001,
,,,-48.01600426E-3,2.0600002,,,,,-48.01600426E-3,2.1400001,,,,,-48.01600426E-3,2.0400002,,,,,-48.01600426E-3,2.1200001,
,,,-48.00000414E-3,2.2000000,,,,,-48.00000414E-3,2.1200001,,,,,-48.00000414E-3,2.1800001,,,,,-48.00000414E-3,2.1200001,
,,,-47.98400402E-3,2.0600002,,,,,-47.98400402E-3,2.1200001,,,,,-47.98400402E-3,2.0400002,,,,,-47.98400402E-3,2.1000001,
,,,-47.96800390E-3,2.2000000,,,,,-47.96800390E-3,2.1200001,,,,,-47.96800390E-3,2.1800001,,,,,-47.96800390E-3,2.1200001,
,,,-47.95200378E-3,2.0800002,,,,,-47.95200378E-3,2.1000001,,,,,-47.95200378E-3,2.0600002,,,,,-47.95200378E-3,2.1200001,
,,,-47.93600366E-3,2.1800001,,,,,-47.93600366E-3,2.1400001,,,,,-47.93600366E-3,2.1600001,,,,,-47.93600366E-3,2.1200001,
,,,-47.92000353E-3,2.0600002,,,,,-47.92000353E-3,2.1200001,,,,,-47.92000353E-3,2.0400002,,,,,-47.92000353E-3,2.1000001,
,,,-47.90400341E-3,2.2000000,,,,,-47.90400341E-3,2.1200001,,,,,-47.90400341E-3,2.1800001,,,,,-47.90400341E-3,2.1200001,
,,,-47.88800329E-3,2.0600002,,,,,-47.88800329E-3,2.1200001,,,,,-47.88800329E-3,2.0400002,,,,,-47.88800329E-3,2.1200001,
,,,-47.87200317E-3,2.2000000,,,,,-47.87200317E-3,2.1200001,,,,,-47.87200317E-3,2.1600001,,,,,-47.87200317E-3,2.1200001,
,,,-47.85600305E-3,2.0600002,,,,,-47.85600305E-3,2.1200001,,,,,-47.85600305E-3,2.0600002,,,,,-47.85600305E-3,2.1200001,
,,,-47.84000292E-3,2.1600001,,,,,-47.84000292E-3,2.1200001,,,,,-47.84000292E-3,2.1600001,,,,,-47.84000292E-3,2.1200001,
,,,-47.82400280E-3,2.0600002,,,,,-47.82400280E-3,2.1200001,,,,,-47.82400280E-3,2.0400002,,,,,-47.82400280E-3,2.1200001,
,,,-47.80800268E-3,2.1800001,,,,,-47.80800268E-3,2.1000001,,,,,-47.80800268E-3,2.1800001,,,,,-47.80800268E-3,2.1000001,
,,,-47.79200256E-3,2.0800002,,,,,-47.79200256E-3,2.1000001,,,,,-47.79200256E-3,2.0600002,,,,,-47.79200256E-3,2.1200001,
,,,-47.77600244E-3,2.1600001,,,,,-47.77600244E-3,2.1200001,,,,,-47.77600244E-3,2.1600001,,,,,-47.77600244E-3,2.1200001,
,,,-47.76000604E-3,2.0400002,,,,,-47.76000604E-3,2.1400001,,,,,-47.76000604E-3,2.0400002,,,,,-47.76000604E-3,2.1000001,
,,,-47.74400592E-3,2.1800001,,,,,-47.74400592E-3,2.1200001,,,,,-47.74400592E-3,2.1800001,,,,,-47.74400592E-3,2.1200001,
,,,-47.72800580E-3,2.0800002,,,,,-47.72800580E-3,2.1200001,,,,,-47.72800580E-3,2.0600002,,,,,-47.72800580E-3,2.1000001,
,,,-47.71200567E-3,2.1600001,,,,,-47.71200567E-3,2.1200001,,,,,-47.71200567E-3,2.1600001,,,,,-47.71200567E-3,2.1000001,
,,,-47.69600555E-3,2.0600002,,,,,-47.69600555E-3,2.1200001,,,,,-47.69600555E-3,2.0400002,,,,,-47.69600555E-3,2.1000001,
,,,-47.68000543E-3,2.2000000,,,,,-47.68000543E-3,2.1200001,,,,,-47.68000543E-3,2.1600001,,,,,-47.68000543E-3,2.1000001,
,,,-47.66400531E-3,2.0800002,,,,,-47.66400531E-3,2.1200001,,,,,-47.66400531E-3,2.0600002,,,,,-47.66400531E-3,2.1000001,
,,,-47.64800519E-3,2.1600001,,,,,-47.64800519E-3,2.1200001,,,,,-47.64800519E-3,2.1600001,,,,,-47.64800519E-3,2.1200001,
,,,-47.63200507E-3,2.0600002,,,,,-47.63200507E-3,2.1200001,,,,,-47.63200507E-3,2.0400002,,,,,-47.63200507E-3,2.1000001,
,,,-47.61600494E-3,2.2000000,,,,,-47.61600494E-3,2.1200001,,,,,-47.61600494E-3,2.1600001,,,,,-47.61600494E-3,2.1200001,
,,,-47.60000482E-3,2.0600002,,,,,-47.60000482E-3,2.1200001,,,,,-47.60000482E-3,2.0400002,,,,,-47.60000482E-3,2.1200001,
,,,-47.58400470E-3,2.1800001,,,,,-47.58400470E-3,2.1200001,,,,,-47.58400470E-3,2.1600001,,,,,-47.58400470E-3,2.1200001,
,,,-47.56800458E-3,2.0800002,,,,,-47.56800458E-3,2.1200001,,,,,-47.56800458E-3,2.0600002,,,,,-47.56800458E-3,2.1200001,
,,,-47.55200446E-3,2.1800001,,,,,-47.55200446E-3,2.1400001,,,,,-47.55200446E-3,2.1600001,,,,,-47.55200446E-3,2.1200001,
,,,-47.53600433E-3,2.0600002,,,,,-47.53600433E-3,2.1200001,,,,,-47.53600433E-3,2.0400002,,,,,-47.53600433E-3,2.1000001,
,,,-47.52000421E-3,2.1800001,,,,,-47.52000421E-3,2.1200001,,,,,-47.52000421E-3,2.1600001,,,,,-47.52000421E-3,2.1000001,
,,,-47.50400409E-3,2.0600002,,,,,-47.50400409E-3,2.1200001,,,,,-47.50400409E-3,2.0400002,,,,,-47.50400409E-3,2.1000001,
,,,-47.48800397E-3,2.1800001,,,,,-47.48800397E-3,2.1200001,,,,,-47.48800397E-3,2.1800001,,,,,-47.48800397E-3,2.1200001,
,,,-47.47200385E-3,2.0800002,,,,,-47.47200385E-3,2.1200001,,,,,-47.47200385E-3,2.0600002,,,,,-47.47200385E-3,2.1200001,
